…
```
## # A tibble: 3 x 11
##   manufacturer model displ  year   cyl trans      drv     cty   hwy fl    class 
##   <chr>        <chr> <dbl> <int> <int> <chr>      <chr> <int> <int> <chr> <chr> 
## 1 audi         a4      1.8  1999     4 auto(l5)   f        18    29 p     compa~
## 2 audi         a4      1.8  1999     4 manual(m5) f        21    29 p     compa~
## 3 audi         a4      2    2008     4 manual(m6) f        20    31 p     compa~
```

```r
mpg[1:3] #seleccionamos las primeras columnas
```

```
## # A tibble: 234 x 3
##    manufacturer model      displ
##    <chr>        <chr>      <dbl>
##  1 audi         a4           1.8
##  2 audi         a4           1.8
##  3 audi         a4           2  
##  4 audi         a4           2  
##  5 audi         a4           2.8
##  6 audi         a4           2.8
##  7 audi         a4           3.1
##  8 audi         a4 quattro   1.8
##  9 audi         a4 quattro   1.8
## 10 audi         a4 quattro   2  
## # ... with 224 more rows
```
…
```
## # A tibble: 1 x 11
##   manufacturer model displ  year   cyl trans    drv     cty   hwy fl    class  
##   <chr>        <chr> <dbl> <int> <int> <chr>    <chr> <int> <int> <chr> <chr>  
## 1 audi         a4      1.8  1999     4 auto(l5) f        18    29 p     compact
```

```r
mpg[,3] #seleccionamos una columna
```

```
## # A tibble: 234 x 1
##    displ
##    <dbl>
##  1   1.8
##  2   1.8
##  3   2  
##  4   2  
##  5   2.8
##  6   2.8
##  7   3.1
##  8   1.8
##  9   1.8
## 10   2  
## # ... with 224 more rows
```
…
