dplyr-ejercicios2.utf8
…
---
<img src="C://Users/Roxana/curso-r-analisis-datos/img/hex-dplyr.png" width="10%" align="right" />

# 2. Eliminar la columna correspondiente a la población en gapminder

```
## # A tibble: 1,704 x 5
##    country     continent  year lifeExp gdpPercap
##    <fct>       <fct>     <int>   <dbl>     <dbl>
##  1 Afghanistan Asia       1952    28.8      779.
##  2 Afghanistan Asia       1957    30.3      821.
##  3 Afghanistan Asia       1962    32.0      853.
##  4 Afghanistan Asia       1967    34.0      836.
##  5 Afghanistan Asia       1972    36.1      740.
##  6 Afghanistan Asia       1977    38.4      786.
##  7 Afghanistan Asia       1982    39.9      978.
##  8 Afghanistan Asia       1987    40.8      852.
##  9 Afghanistan Asia       1992    41.7      649.
## 10 Afghanistan Asia       1997    41.8      635.
## # ... with 1,694 more rows
```

---
<img src="C://Users/Roxana/curso-r-analisis-datos/img/hex-dplyr.png" width="10%" align="right" />

# Solución 

```r
gapminder %>%
  select(-pop)
```

```
## # A tibble: 1,704 x 5
##    country     continent  year lifeExp gdpPercap
##    <fct>       <fct>     <int>   <dbl>     <dbl>
##  1 Afghanistan Asia       1952    28.8      779.
##  2 Afghanistan Asia       1957    30.3      821.
##  3 Afghanistan Asia       1962    32.0      853.
##  4 Afghanistan Asia       1967    34.0      836.
##  5 Afghanistan Asia       1972    36.1      740.
##  6 Afghanistan Asia       1977    38.4      786.
##  7 Afghanistan Asia       1982    39.9      978.
##  8 Afghanistan Asia       1987    40.8      852.
##  9 Afghanistan Asia       1992    41.7      649.
## 10 Afghanistan Asia       1997    41.8      635.
## # ... with 1,694 more rows
```

---
<img src="C://Users/Roxana/curso-r-analisis-datos/img/hex-dplyr.png" width="10%" align="right" />

## 3. Seleccionar los datos correspondientes al continente americano, correspondientes del año 80 en adelante. Los datos deben estar ordenados según los años más actuales. 

```
## # A tibble: 150 x 6
##    country            continent  year lifeExp       pop gdpPercap
##    <fct>              <fct>     <int>   <dbl>     <int>     <dbl>
##  1 Argentina          Americas   2007    75.3  40301927    12779.
##  2 Bolivia            Americas   2007    65.6   9119152     3822.
##  3 Brazil             Americas   2007    72.4 190010647     9066.
##  4 Canada             Americas   2007    80.7  33390141    36319.
##  5 Chile              Americas   2007    78.6  16284741    13172.
##  6 Colombia           Americas   2007    72.9  44227550     7007.
##  7 Costa Rica         Americas   2007    78.8   4133884     9645.
##  8 Cuba               Americas   2007    78.3  11416987     8948.
##  9 Dominican Republic Americas   2007    72.2   9319622     6025.
## 10 Ecuador            Americas   2007    75.0  13755680     6873.
## # ... with 140 more rows
```

---
<img src="C://Users/Roxana/curso-r-analisis-datos/img/hex-dplyr.png" width="10%" align="right" />

# Solución

```r
gapminder %>%
  filter(continent=="Americas", year >= 1980) %>%
  arrange(desc(year))
```

```
## # A tibble: 150 x 6
##    country            continent  year lifeExp       pop gdpPercap
##    <fct>              <fct>     <int>   <dbl>     <int>     <dbl>
##  1 Argentina          Americas   2007    75.3  40301927    12779.
##  2 Bolivia            Americas   2007    65.6   9119152     3822.
##  3 Brazil             Americas   2007    72.4 190010647     9066.
##  4 Canada             Americas   2007    80.7  33390141    36319.
##  5 Chile              Americas   2007    78.6  16284741    13172.
##  6 Colombia           Americas   2007    72.9  44227550     7007.
##  7 Costa Rica         Americas   2007    78.8   4133884     9645.
##  8 Cuba               Americas   2007    78.3  11416987     8948.
##  9 Dominican Republic Americas   2007    72.2   9319622     6025.
## 10 Ecuador            Americas   2007    75.0  13755680     6873.
## # ... with 140 more rows
```

---
<img src="C://Users/Roxana/curso-r-analisis-datos/img/hex-dplyr.png" width="10%" align="right" />

# 4. Seleccionar las columnas correspondientes a ingresos per capita y esperanza de vida

```
## # A tibble: 1,704 x 2
##    lifeExp gdpPercap
##      <dbl>     <dbl>
##  1    28.8      779.
##  2    30.3      821.
##  3    32.0      853.
##  4    34.0      836.
##  5    36.1      740.
##  6    38.4      786.
##  7    39.9      978.
##  8    40.8      852.
##  9    41.7      649.
## 10    41.8      635.
## # ... with 1,694 more rows
```
---
<img src="C://Users/Roxana/curso-r-analisis-datos/img/hex-dplyr.png" width="10%" align="right" />

# Solución 

```r
gapminder %>%
  select(lifeExp, gdpPercap)
```

```
## # A tibble: 1,704 x 2
##    lifeExp gdpPercap
##      <dbl>     <dbl>
##  1    28.8      779.
##  2    30.3      821.
##  3    32.0      853.
##  4    34.0      836.
##  5    36.1      740.
##  6    38.4      786.
##  7    39.9      978.
##  8    40.8      852.
##  9    41.7      649.
## 10    41.8      635.
## # ... with 1,694 more rows
```
…
---
<img src="C://Users/Roxana/curso-r-analisis-datos/img/hex-dplyr.png" width="10%" align="right" />

# 9. Seleccionar la mitad (50%) del dataset gapminder

```
## # A tibble: 852 x 6
##    country                continent  year lifeExp       pop gdpPercap
##    <fct>                  <fct>     <int>   <dbl>     <int>     <dbl>
##  1 Philippines            Asia       1997    68.6  75012988     2537.
##  2 Germany                Europe     1977    72.5  78160773    20513.
##  3 Belgium                Europe     2002    78.3  10311970    30486.
##  4 Colombia               Americas   1982    66.7  27764644     4398.
##  5 United States          Americas   1962    70.2 186538000    16173.
##  6 Denmark                Europe     1977    74.7   5088419    20423.
##  7 Jordan                 Asia       1957    45.7    746559     1886.
##  8 Bosnia and Herzegovina Europe     1977    69.9   4086000     3528.
##  9 Canada                 Americas   1952    68.8  14785584    11367.
## 10 Kuwait                 Asia       1997    76.2   1765345    40301.
## # ... with 842 more rows
```

---
<img src="C://Users/Roxana/curso-r-analisis-datos/img/hex-dplyr.png" width="10%" align="right" />

# Solución

```r
gapminder %>%
  sample_frac(size=0.5)
```

```
## # A tibble: 852 x 6
##    country            continent  year lifeExp      pop gdpPercap
##    <fct>              <fct>     <int>   <dbl>    <int>     <dbl>
##  1 Oman               Asia       1962    43.2   628164     2925.
##  2 Zimbabwe           Africa     1982    60.4  7636524      789.
##  3 Saudi Arabia       Asia       1987    66.3 14619745    21198.
##  4 Cameroon           Africa     1997    52.2 14195809     1694.
##  5 Slovak Republic    Europe     2002    73.8  5410052    13639.
##  6 Germany            Europe     1957    69.1 71019069    10188.
##  7 Panama             Americas   1952    55.2   940080     2480.
##  8 Benin              Africa     1962    42.6  2151895      949.
##  9 West Bank and Gaza Asia       1952    43.2  1030585     1516.
## 10 Albania            Europe     1992    71.6  3326498     2497.
## # ... with 842 more rows
```
…
