dplyr-trucos.utf8
…
#Tip 1: si tenemos que seleccionar las mismas columnas varias veces

```r
library(gapminder)
library(magrittr)
library(dplyr)
cols<-c("country", "lifeExp", "gdpPercap")
gapminder %>%
  select(!!cols)
```

```
## # A tibble: 1,704 x 3
##    country     lifeExp gdpPercap
##    <fct>         <dbl>     <dbl>
##  1 Afghanistan    28.8      779.
##  2 Afghanistan    30.3      821.
##  3 Afghanistan    32.0      853.
##  4 Afghanistan    34.0      836.
##  5 Afghanistan    36.1      740.
##  6 Afghanistan    38.4      786.
##  7 Afghanistan    39.9      978.
##  8 Afghanistan    40.8      852.
##  9 Afghanistan    41.7      649.
## 10 Afghanistan    41.8      635.
## # ... with 1,694 more rows
```
…
---
<img src="C://Users/Roxana/curso-r-analisis-datos/img/hex-dplyr.png" width="10%" align="right" />

# arrange()

- Podemos reordenarlos de manera descendente

```r
gapminder %>%
  filter(year == 2007) %>%
  arrange(desc(lifeExp))
```

```
## # A tibble: 142 x 6
##    country          continent  year lifeExp       pop gdpPercap
##    <fct>            <fct>     <int>   <dbl>     <int>     <dbl>
##  1 Japan            Asia       2007    82.6 127467972    31656.
##  2 Hong Kong, China Asia       2007    82.2   6980412    39725.
##  3 Iceland          Europe     2007    81.8    301931    36181.
##  4 Switzerland      Europe     2007    81.7   7554661    37506.
##  5 Australia        Oceania    2007    81.2  20434176    34435.
##  6 Spain            Europe     2007    80.9  40448191    28821.
##  7 Sweden           Europe     2007    80.9   9031088    33860.
##  8 Israel           Asia       2007    80.7   6426679    25523.
##  9 France           Europe     2007    80.7  61083916    30470.
## 10 Canada           Americas   2007    80.7  33390141    36319.
## # ... with 132 more rows
```
…
