dplyr-ejercicios.utf8
…
---
<img src="C://Users/Roxana/curso-r-analisis-datos/img/hex-dplyr.png" width="10%" align="right" />

# 3. ¿Cuáles son los lugares con más coronavirus reportados a la fecha? 

```
## # A tibble: 63 x 7
## # Groups:   Country [27]
##      Sno Province.State Country        Last.Update    Confirmed Deaths Recovered
##    <int> <fct>          <fct>          <fct>              <dbl>  <dbl>     <dbl>
##  1   435 Hubei          Mainland China 1/31/2020 19:~      7153    249       169
##  2   436 Zhejiang       Mainland China 1/31/2020 19:~       537      0        14
##  3   437 Guangdong      Mainland China 1/31/2020 19:~       436      0        10
##  4   438 Henan          Mainland China 1/31/2020 19:~       352      2         3
##  5   439 Hunan          Mainland China 1/31/2020 19:~       332      0         3
##  6   440 Jiangxi        Mainland China 1/31/2020 19:~       240      0         7
##  7   441 Chongqing      Mainland China 1/31/2020 19:~       238      1         1
##  8   442 Anhui          Mainland China 1/31/2020 19:~       237      0         3
##  9   443 Shandong       Mainland China 1/31/2020 19:~       184      0         2
## 10   444 Sichuan        Mainland China 1/31/2020 19:~       177      1         1
## # ... with 53 more rows
```

---

```r
corona %>%
  group_by(Country) %>%
  filter(Last.Update=="1/31/2020 19:00") %>%
  arrange(desc(Confirmed))
```

```
## # A tibble: 63 x 7
## # Groups:   Country [27]
##      Sno Province.State Country        Last.Update    Confirmed Deaths Recovered
##    <int> <fct>          <fct>          <fct>              <dbl>  <dbl>     <dbl>
##  1   435 Hubei          Mainland China 1/31/2020 19:~      7153    249       169
##  2   436 Zhejiang       Mainland China 1/31/2020 19:~       537      0        14
##  3   437 Guangdong      Mainland China 1/31/2020 19:~       436      0        10
##  4   438 Henan          Mainland China 1/31/2020 19:~       352      2         3
##  5   439 Hunan          Mainland China 1/31/2020 19:~       332      0         3
##  6   440 Jiangxi        Mainland China 1/31/2020 19:~       240      0         7
##  7   441 Chongqing      Mainland China 1/31/2020 19:~       238      1         1
##  8   442 Anhui          Mainland China 1/31/2020 19:~       237      0         3
##  9   443 Shandong       Mainland China 1/31/2020 19:~       184      0         2
## 10   444 Sichuan        Mainland China 1/31/2020 19:~       177      1         1
## # ... with 53 more rows
```
…
---

<img src="C://Users/Roxana/curso-r-analisis-datos/img/hex-dplyr.png" width="10%" align="right" />

# 5. Después de China, ¿cuál es el segundo país con casos de Coronavirus?

```
## # A tibble: 32 x 7
## # Groups:   Country [26]
##      Sno Province.State Country     Last.Update     Confirmed Deaths Recovered
##    <int> <fct>          <fct>       <fct>               <dbl>  <dbl>     <dbl>
##  1   474 ""             Thailand    1/31/2020 19:00        19      0         7
##  2   473 ""             Japan       1/31/2020 19:00        17      0         1
##  3   476 ""             Singapore   1/31/2020 19:00        16      0         0
##  4   464 Hong Kong      Hong Kong   1/31/2020 19:00        13      0         0
##  5   475 ""             South Korea 1/31/2020 19:00        11      0         0
##  6   465 Taiwan         Taiwan      1/31/2020 19:00        10      0         0
##  7   480 ""             Malaysia    1/31/2020 19:00         8      0         0
##  8   467 Macau          Macau       1/31/2020 19:00         7      0         0
##  9   488 Bavaria        Germany     1/31/2020 19:00         7      0         0
## 10   478 ""             France      1/31/2020 19:00         6      0         0
## # ... with 22 more rows
```

---

```r
corona %>%
  group_by(Country) %>%
  filter(Last.Update=="1/31/2020 19:00", Country!="Mainland China")%>%
  arrange(desc(Confirmed))
```

```
## # A tibble: 32 x 7
## # Groups:   Country [26]
##      Sno Province.State Country     Last.Update     Confirmed Deaths Recovered
##    <int> <fct>          <fct>       <fct>               <dbl>  <dbl>     <dbl>
##  1   474 ""             Thailand    1/31/2020 19:00        19      0         7
##  2   473 ""             Japan       1/31/2020 19:00        17      0         1
##  3   476 ""             Singapore   1/31/2020 19:00        16      0         0
##  4   464 Hong Kong      Hong Kong   1/31/2020 19:00        13      0         0
##  5   475 ""             South Korea 1/31/2020 19:00        11      0         0
##  6   465 Taiwan         Taiwan      1/31/2020 19:00        10      0         0
##  7   480 ""             Malaysia    1/31/2020 19:00         8      0         0
##  8   467 Macau          Macau       1/31/2020 19:00         7      0         0
##  9   488 Bavaria        Germany     1/31/2020 19:00         7      0         0
## 10   478 ""             France      1/31/2020 19:00         6      0         0
## # ... with 22 more rows
```
---

<img src="C://Users/Roxana/curso-r-analisis-datos/img/hex-dplyr.png" width="10%" align="right" />

# 6. Después de Hubei, ¿cuáles son las provincias más afectadas?

```r
corona %>%
  group_by(Province.State) %>%
  filter(Last.Update=="1/31/2020 19:00") %>%
  arrange(desc(Confirmed))
```

```
## # A tibble: 63 x 7
## # Groups:   Province.State [45]
##      Sno Province.State Country        Last.Update    Confirmed Deaths Recovered
##    <int> <fct>          <fct>          <fct>              <dbl>  <dbl>     <dbl>
##  1   435 Hubei          Mainland China 1/31/2020 19:~      7153    249       169
##  2   436 Zhejiang       Mainland China 1/31/2020 19:~       537      0        14
##  3   437 Guangdong      Mainland China 1/31/2020 19:~       436      0        10
##  4   438 Henan          Mainland China 1/31/2020 19:~       352      2         3
##  5   439 Hunan          Mainland China 1/31/2020 19:~       332      0         3
##  6   440 Jiangxi        Mainland China 1/31/2020 19:~       240      0         7
##  7   441 Chongqing      Mainland China 1/31/2020 19:~       238      1         1
##  8   442 Anhui          Mainland China 1/31/2020 19:~       237      0         3
##  9   443 Shandong       Mainland China 1/31/2020 19:~       184      0         2
## 10   444 Sichuan        Mainland China 1/31/2020 19:~       177      1         1
## # ... with 53 more rows
```
…
