ml-02.utf8
…
---

```r
titanic_testing <- titanic_recipe %>%
  bake(testing(titanic_split)) 

titanic_testing
```

```
## # A tibble: 71 x 7
##        age   fare  parch passengerid pclass  sibsp survived
##      <dbl>  <dbl>  <dbl>       <dbl>  <dbl>  <dbl> <fct>   
##  1  1.69    0.232 -0.521       -1.73  -1.35 -0.569 died    
##  2 -1.93   -0.304  0.698       -1.72   1.01  2.72  died    
##  3 -0.674  -0.531 -0.521       -1.70   1.01 -0.569 died    
##  4  0.580  -0.124  5.57        -1.65   1.01  0.527 lived   
##  5 -0.813  -0.358 -0.521       -1.60   1.01  1.62  died    
##  6 -0.0468 -0.531 -0.521       -1.40   1.01 -0.569 died    
##  7 -0.256  -0.313  1.92        -1.39   1.01  0.527 died    
##  8 -0.395   3.64   0.698       -1.29  -1.35 -0.569 died    
##  9 -1.93   -0.126  1.92        -1.29   1.01  3.82  died    
## 10 -1.23   -0.475 -0.521       -1.26   1.01  0.527 lived   
## # ... with 61 more rows
```
…
```r
titanic_ranger %>%
  predict(titanic_testing, type="prob")
```

```
## # A tibble: 71 x 2
##    .pred_died .pred_lived
##         <dbl>       <dbl>
##  1      0.451       0.549
##  2      0.623       0.377
##  3      0.448       0.552
##  4      0.847       0.153
##  5      0.718       0.282
##  6      0.622       0.378
##  7      0.437       0.563
##  8      0.410       0.590
##  9      0.708       0.292
## 10      0.484       0.516
## # ... with 61 more rows
```

---
{ranger}

```r
titanic_probs <- titanic_ranger %>%
  predict(titanic_testing, type = "prob") %>%
  bind_cols(titanic_testing) %>%
  select(.pred_died, .pred_lived, survived, everything())
titanic_probs
```

```
## # A tibble: 71 x 9
##    .pred_died .pred_lived survived     age   fare  parch passengerid pclass
##         <dbl>       <dbl> <fct>      <dbl>  <dbl>  <dbl>       <dbl>  <dbl>
##  1      0.451       0.549 died      1.69    0.232 -0.521       -1.73  -1.35
##  2      0.623       0.377 died     -1.93   -0.304  0.698       -1.72   1.01
##  3      0.448       0.552 died     -0.674  -0.531 -0.521       -1.70   1.01
##  4      0.847       0.153 lived     0.580  -0.124  5.57        -1.65   1.01
##  5      0.718       0.282 died     -0.813  -0.358 -0.521       -1.60   1.01
##  6      0.622       0.378 died     -0.0468 -0.531 -0.521       -1.40   1.01
##  7      0.437       0.563 died     -0.256  -0.313  1.92        -1.39   1.01
##  8      0.410       0.590 died     -0.395   3.64   0.698       -1.29  -1.35
##  9      0.708       0.292 died     -1.93   -0.126  1.92        -1.29   1.01
## 10      0.484       0.516 lived    -1.23   -0.475 -0.521       -1.26   1.01
## # ... with 61 more rows, and 1 more variable: sibsp <dbl>
```
…
---

```r
titanic_ranger %>%
  predict(titanic_testing) %>%
  bind_cols(titanic_testing) %>%
  select(.pred_class, survived, everything())
```

```
## # A tibble: 71 x 8
##    .pred_class survived     age   fare  parch passengerid pclass  sibsp
##    <fct>       <fct>      <dbl>  <dbl>  <dbl>       <dbl>  <dbl>  <dbl>
##  1 lived       died      1.69    0.232 -0.521       -1.73  -1.35 -0.569
##  2 died        died     -1.93   -0.304  0.698       -1.72   1.01  2.72 
##  3 lived       died     -0.674  -0.531 -0.521       -1.70   1.01 -0.569
##  4 died        lived     0.580  -0.124  5.57        -1.65   1.01  0.527
##  5 died        died     -0.813  -0.358 -0.521       -1.60   1.01  1.62 
##  6 died        died     -0.0468 -0.531 -0.521       -1.40   1.01 -0.569
##  7 lived       died     -0.256  -0.313  1.92        -1.39   1.01  0.527
##  8 lived       died     -0.395   3.64   0.698       -1.29  -1.35 -0.569
##  9 died        died     -1.93   -0.126  1.92        -1.29   1.01  3.82 
## 10 lived       lived    -1.23   -0.475 -0.521       -1.26   1.01  0.527
## # ... with 61 more rows
```
…
