ml-03.utf8
…
.footnote[https://tidymodels.github.io/recipes/reference/juice.html
]

---
<img src="C://Users/Roxana/curso-r-analisis-datos/img/recipes.jpg" width="10%" align="right" />

```r
sonar_testing <- sonar_recipe %>%
  bake(testing(sonar_split)) 
sonar_testing
```

```
## # A tibble: 83 x 57
##    Class      V1     V10    V11    V12     V13     V14     V18     V19      V2
##    <fct>   <dbl>   <dbl>  <dbl>  <dbl>   <dbl>   <dbl>   <dbl>   <dbl>   <dbl>
##  1 R     -0.376   0.0596 -0.493 -0.628 -0.329  -1.38   -0.563  -0.0220 -0.0269
##  2 R      0.739   0.602   1.90   2.88   3.00    2.90    1.67    1.13    0.408 
##  3 R     -0.275  -0.385  -0.821 -0.577  0.804   0.389  -0.261   0.886  -0.0154
##  4 R     -0.535  -1.26   -1.08  -0.999 -1.02   -1.23   -0.474  -0.741  -0.593 
##  5 R     -0.711   0.0660 -0.471 -0.402  0.230  -0.557  -0.256   0.311   0.151 
##  6 R      0.0559 -0.837   0.135  0.828  0.0535 -0.0736  0.0273 -0.307   0.671 
##  7 R     -0.412  -0.599  -0.763 -0.614  0.581   0.916   0.875   0.791   0.648 
##  8 R     -0.0676 -0.361  -0.445 -0.777 -0.952  -0.960   0.424  -0.798  -0.825 
##  9 R     -0.703   2.77    2.57   2.08   1.97    1.42    1.27    1.20   -0.662 
## 10 R      0.828   1.23    0.530  0.309 -0.285  -0.921   0.562   0.629   0.368 
## # ... with 73 more rows, and 47 more variables: V21 <dbl>, V22 <dbl>,
## #   V23 <dbl>, V24 <dbl>, V25 <dbl>, V26 <dbl>, V27 <dbl>, V28 <dbl>,
## #   V29 <dbl>, V3 <dbl>, V30 <dbl>, V31 <dbl>, V32 <dbl>, V33 <dbl>, V34 <dbl>,
## #   V35 <dbl>, V36 <dbl>, V37 <dbl>, V38 <dbl>, V39 <dbl>, V4 <dbl>, V40 <dbl>,
## #   V41 <dbl>, V42 <dbl>, V43 <dbl>, V44 <dbl>, V45 <dbl>, V46 <dbl>,
## #   V47 <dbl>, V48 <dbl>, V49 <dbl>, V5 <dbl>, V50 <dbl>, V51 <dbl>, V52 <dbl>,
## #   V53 <dbl>, V54 <dbl>, V55 <dbl>, V56 <dbl>, V57 <dbl>, V58 <dbl>,
## #   V59 <dbl>, V6 <dbl>, V60 <dbl>, V7 <dbl>, V8 <dbl>, V9 <dbl>
```
…
---
<img src="C://Users/Roxana/curso-r-analisis-datos/img/parsnip.png" width="15%" align="right" />

```r
predict(sonar_ranger, sonar_testing)
```

```
## # A tibble: 83 x 1
##    .pred_class
##    <fct>      
##  1 R          
##  2 M          
##  3 R          
##  4 R          
##  5 R          
##  6 M          
##  7 M          
##  8 R          
##  9 M          
## 10 M          
## # ... with 73 more rows
```

---
<img src="C://Users/Roxana/curso-r-analisis-datos/img/parsnip.png" width="15%" align="right" />

```r
sonar_ranger %>%
  predict(sonar_testing) %>%
  bind_cols(sonar_testing) 
```

```
## # A tibble: 83 x 58
##    .pred_class Class      V1     V10    V11    V12     V13     V14     V18
##    <fct>       <fct>   <dbl>   <dbl>  <dbl>  <dbl>   <dbl>   <dbl>   <dbl>
##  1 R           R     -0.376   0.0596 -0.493 -0.628 -0.329  -1.38   -0.563 
##  2 M           R      0.739   0.602   1.90   2.88   3.00    2.90    1.67  
##  3 R           R     -0.275  -0.385  -0.821 -0.577  0.804   0.389  -0.261 
##  4 R           R     -0.535  -1.26   -1.08  -0.999 -1.02   -1.23   -0.474 
##  5 R           R     -0.711   0.0660 -0.471 -0.402  0.230  -0.557  -0.256 
##  6 M           R      0.0559 -0.837   0.135  0.828  0.0535 -0.0736  0.0273
##  7 M           R     -0.412  -0.599  -0.763 -0.614  0.581   0.916   0.875 
##  8 R           R     -0.0676 -0.361  -0.445 -0.777 -0.952  -0.960   0.424 
##  9 M           R     -0.703   2.77    2.57   2.08   1.97    1.42    1.27  
## 10 M           R      0.828   1.23    0.530  0.309 -0.285  -0.921   0.562 
## # ... with 73 more rows, and 49 more variables: V19 <dbl>, V2 <dbl>, V21 <dbl>,
## #   V22 <dbl>, V23 <dbl>, V24 <dbl>, V25 <dbl>, V26 <dbl>, V27 <dbl>,
## #   V28 <dbl>, V29 <dbl>, V3 <dbl>, V30 <dbl>, V31 <dbl>, V32 <dbl>, V33 <dbl>,
## #   V34 <dbl>, V35 <dbl>, V36 <dbl>, V37 <dbl>, V38 <dbl>, V39 <dbl>, V4 <dbl>,
## #   V40 <dbl>, V41 <dbl>, V42 <dbl>, V43 <dbl>, V44 <dbl>, V45 <dbl>,
## #   V46 <dbl>, V47 <dbl>, V48 <dbl>, V49 <dbl>, V5 <dbl>, V50 <dbl>, V51 <dbl>,
## #   V52 <dbl>, V53 <dbl>, V54 <dbl>, V55 <dbl>, V56 <dbl>, V57 <dbl>,
## #   V58 <dbl>, V59 <dbl>, V6 <dbl>, V60 <dbl>, V7 <dbl>, V8 <dbl>, V9 <dbl>
```
…
---

<img src="C://Users/Roxana/curso-r-analisis-datos/img/yardstick.jpg" width="10%" align="right" />

```r
sonar_ranger %>%
  predict(sonar_testing, type="prob")
```

```
## # A tibble: 83 x 2
##    .pred_M .pred_R
##      <dbl>   <dbl>
##  1   0.484   0.516
##  2   0.583   0.417
##  3   0.492   0.508
##  4   0.215   0.785
##  5   0.394   0.606
##  6   0.527   0.473
##  7   0.522   0.478
##  8   0.131   0.869
##  9   0.674   0.326
## 10   0.710   0.290
## # ... with 73 more rows
```
---
<img src="C://Users/Roxana/curso-r-analisis-datos/img/yardstick.jpg" width="10%" align="right" />

```r
sonar_probs <- sonar_ranger %>%
  predict(sonar_testing, type = "prob") %>%
  bind_cols(sonar_testing)
sonar_probs
```

```
## # A tibble: 83 x 59
##    .pred_M .pred_R Class      V1     V10    V11    V12     V13     V14     V18
##      <dbl>   <dbl> <fct>   <dbl>   <dbl>  <dbl>  <dbl>   <dbl>   <dbl>   <dbl>
##  1   0.484   0.516 R     -0.376   0.0596 -0.493 -0.628 -0.329  -1.38   -0.563 
##  2   0.583   0.417 R      0.739   0.602   1.90   2.88   3.00    2.90    1.67  
##  3   0.492   0.508 R     -0.275  -0.385  -0.821 -0.577  0.804   0.389  -0.261 
##  4   0.215   0.785 R     -0.535  -1.26   -1.08  -0.999 -1.02   -1.23   -0.474 
##  5   0.394   0.606 R     -0.711   0.0660 -0.471 -0.402  0.230  -0.557  -0.256 
##  6   0.527   0.473 R      0.0559 -0.837   0.135  0.828  0.0535 -0.0736  0.0273
##  7   0.522   0.478 R     -0.412  -0.599  -0.763 -0.614  0.581   0.916   0.875 
##  8   0.131   0.869 R     -0.0676 -0.361  -0.445 -0.777 -0.952  -0.960   0.424 
##  9   0.674   0.326 R     -0.703   2.77    2.57   2.08   1.97    1.42    1.27  
## 10   0.710   0.290 R      0.828   1.23    0.530  0.309 -0.285  -0.921   0.562 
## # ... with 73 more rows, and 49 more variables: V19 <dbl>, V2 <dbl>, V21 <dbl>,
## #   V22 <dbl>, V23 <dbl>, V24 <dbl>, V25 <dbl>, V26 <dbl>, V27 <dbl>,
## #   V28 <dbl>, V29 <dbl>, V3 <dbl>, V30 <dbl>, V31 <dbl>, V32 <dbl>, V33 <dbl>,
## #   V34 <dbl>, V35 <dbl>, V36 <dbl>, V37 <dbl>, V38 <dbl>, V39 <dbl>, V4 <dbl>,
## #   V40 <dbl>, V41 <dbl>, V42 <dbl>, V43 <dbl>, V44 <dbl>, V45 <dbl>,
## #   V46 <dbl>, V47 <dbl>, V48 <dbl>, V49 <dbl>, V5 <dbl>, V50 <dbl>, V51 <dbl>,
## #   V52 <dbl>, V53 <dbl>, V54 <dbl>, V55 <dbl>, V56 <dbl>, V57 <dbl>,
## #   V58 <dbl>, V59 <dbl>, V6 <dbl>, V60 <dbl>, V7 <dbl>, V8 <dbl>, V9 <dbl>
```
…
