…
.footnote[https://tidymodels.github.io/recipes/reference/juice.html
]

---
<img src="C://Users/Roxana/curso-r-analisis-datos/img/recipes.jpg" width="10%" align="right" />

```r
sonar_testing <- sonar_recipe %>%
  bake(testing(sonar_split)) 

sonar_testing
```

```
## # A tibble: 83 x 54
##         V1      V2      V3     V4     V5       V6      V7      V8     V9    V12
##      <dbl>   <dbl>   <dbl>  <dbl>  <dbl>    <dbl>   <dbl>   <dbl>  <dbl>  <dbl>
##  1 -0.340   0.0579  0.0373 -0.662  0.437  0.00348  0.613   0.375   1.13  -0.662
##  2  0.849   0.554   1.12    0.338  0.866  3.01     1.68    2.64    1.32   2.85 
##  3 -0.810  -0.594   0.546  -0.666 -0.964 -1.16    -0.149  -0.0160 -0.982 -0.373
##  4  0.0641  0.325  -0.356  -0.730 -0.629  0.0110   0.0291  0.654   0.283  1.22 
##  5  0.210   1.97    2.37    1.83   1.78   1.37    -0.783   0.134   0.264 -1.31 
##  6  1.16    0.635   1.12   -0.430  0.819 -0.117   -0.272  -0.814  -0.255  0.399
##  7 -0.702  -0.144  -0.638  -0.442 -0.678 -1.66    -1.73   -0.855  -0.543 -1.18 
##  8  0.121   0.854   0.616   0.819  1.67   2.47     1.71    0.895  -0.260  0.794
##  9 -0.378   0.828  -0.0930  0.514  1.25  -0.330   -1.06   -1.29   -0.614 -0.649
## 10  0.943   0.508   1.06    1.51   1.99   3.93     3.15    1.29    1.73   0.274
## # ... with 73 more rows, and 44 more variables: V13 <dbl>, V14 <dbl>,
## #   V17 <dbl>, V19 <dbl>, V21 <dbl>, V22 <dbl>, V23 <dbl>, V24 <dbl>,
## #   V25 <dbl>, V26 <dbl>, V27 <dbl>, V28 <dbl>, V29 <dbl>, V30 <dbl>,
## #   V31 <dbl>, V32 <dbl>, V33 <dbl>, V34 <dbl>, V35 <dbl>, V36 <dbl>,
## #   V37 <dbl>, V38 <dbl>, V39 <dbl>, V40 <dbl>, V41 <dbl>, V42 <dbl>,
## #   V43 <dbl>, V44 <dbl>, V45 <dbl>, V46 <dbl>, V47 <dbl>, V49 <dbl>,
## #   V50 <dbl>, V51 <dbl>, V52 <dbl>, V53 <dbl>, V54 <dbl>, V55 <dbl>,
## #   V56 <dbl>, V57 <dbl>, V58 <dbl>, V59 <dbl>, V60 <dbl>, Class <fct>
```
…
---
<img src="C://Users/Roxana/curso-r-analisis-datos/img/parsnip.png" width="15%" align="right" />

```r
predict(sonar_ranger, sonar_testing)
```

```
## # A tibble: 83 x 1
##    .pred_class
##    <fct>      
##  1 R          
##  2 M          
##  3 R          
##  4 R          
##  5 M          
##  6 M          
##  7 R          
##  8 M          
##  9 M          
## 10 M          
## # ... with 73 more rows
```

---
<img src="C://Users/Roxana/curso-r-analisis-datos/img/parsnip.png" width="15%" align="right" />

```r
sonar_ranger %>%
  predict(sonar_testing) %>%
  bind_cols(sonar_testing) 
```

```
## # A tibble: 83 x 55
##    .pred_class      V1      V2      V3     V4     V5       V6      V7      V8
##    <fct>         <dbl>   <dbl>   <dbl>  <dbl>  <dbl>    <dbl>   <dbl>   <dbl>
##  1 R           -0.340   0.0579  0.0373 -0.662  0.437  0.00348  0.613   0.375 
##  2 M            0.849   0.554   1.12    0.338  0.866  3.01     1.68    2.64  
##  3 R           -0.810  -0.594   0.546  -0.666 -0.964 -1.16    -0.149  -0.0160
##  4 R            0.0641  0.325  -0.356  -0.730 -0.629  0.0110   0.0291  0.654 
##  5 M            0.210   1.97    2.37    1.83   1.78   1.37    -0.783   0.134 
##  6 M            1.16    0.635   1.12   -0.430  0.819 -0.117   -0.272  -0.814 
##  7 R           -0.702  -0.144  -0.638  -0.442 -0.678 -1.66    -1.73   -0.855 
##  8 M            0.121   0.854   0.616   0.819  1.67   2.47     1.71    0.895 
##  9 M           -0.378   0.828  -0.0930  0.514  1.25  -0.330   -1.06   -1.29  
## 10 M            0.943   0.508   1.06    1.51   1.99   3.93     3.15    1.29  
## # ... with 73 more rows, and 46 more variables: V9 <dbl>, V12 <dbl>, V13 <dbl>,
## #   V14 <dbl>, V17 <dbl>, V19 <dbl>, V21 <dbl>, V22 <dbl>, V23 <dbl>,
## #   V24 <dbl>, V25 <dbl>, V26 <dbl>, V27 <dbl>, V28 <dbl>, V29 <dbl>,
## #   V30 <dbl>, V31 <dbl>, V32 <dbl>, V33 <dbl>, V34 <dbl>, V35 <dbl>,
## #   V36 <dbl>, V37 <dbl>, V38 <dbl>, V39 <dbl>, V40 <dbl>, V41 <dbl>,
## #   V42 <dbl>, V43 <dbl>, V44 <dbl>, V45 <dbl>, V46 <dbl>, V47 <dbl>,
## #   V49 <dbl>, V50 <dbl>, V51 <dbl>, V52 <dbl>, V53 <dbl>, V54 <dbl>,
## #   V55 <dbl>, V56 <dbl>, V57 <dbl>, V58 <dbl>, V59 <dbl>, V60 <dbl>,
## #   Class <fct>
```
…
---

<img src="C://Users/Roxana/curso-r-analisis-datos/img/yardstick.jpg" width="10%" align="right" />

```r
sonar_ranger %>%
  predict(sonar_testing, type="prob")
```

```
## # A tibble: 83 x 2
##    .pred_M .pred_R
##      <dbl>   <dbl>
##  1   0.447   0.553
##  2   0.589   0.411
##  3   0.328   0.672
##  4   0.380   0.620
##  5   0.555   0.445
##  6   0.717   0.283
##  7   0.414   0.586
##  8   0.521   0.479
##  9   0.509   0.491
## 10   0.596   0.404
## # ... with 73 more rows
```
---
<img src="C://Users/Roxana/curso-r-analisis-datos/img/yardstick.jpg" width="10%" align="right" />

```r
sonar_probs <- sonar_ranger %>%
  predict(sonar_testing, type = "prob") %>%
  bind_cols(sonar_testing)
sonar_probs
```

```
## # A tibble: 83 x 56
##    .pred_M .pred_R      V1      V2      V3     V4     V5       V6      V7
##      <dbl>   <dbl>   <dbl>   <dbl>   <dbl>  <dbl>  <dbl>    <dbl>   <dbl>
##  1   0.447   0.553 -0.340   0.0579  0.0373 -0.662  0.437  0.00348  0.613 
##  2   0.589   0.411  0.849   0.554   1.12    0.338  0.866  3.01     1.68  
##  3   0.328   0.672 -0.810  -0.594   0.546  -0.666 -0.964 -1.16    -0.149 
##  4   0.380   0.620  0.0641  0.325  -0.356  -0.730 -0.629  0.0110   0.0291
##  5   0.555   0.445  0.210   1.97    2.37    1.83   1.78   1.37    -0.783 
##  6   0.717   0.283  1.16    0.635   1.12   -0.430  0.819 -0.117   -0.272 
##  7   0.414   0.586 -0.702  -0.144  -0.638  -0.442 -0.678 -1.66    -1.73  
##  8   0.521   0.479  0.121   0.854   0.616   0.819  1.67   2.47     1.71  
##  9   0.509   0.491 -0.378   0.828  -0.0930  0.514  1.25  -0.330   -1.06  
## 10   0.596   0.404  0.943   0.508   1.06    1.51   1.99   3.93     3.15  
## # ... with 73 more rows, and 47 more variables: V8 <dbl>, V9 <dbl>, V12 <dbl>,
## #   V13 <dbl>, V14 <dbl>, V17 <dbl>, V19 <dbl>, V21 <dbl>, V22 <dbl>,
## #   V23 <dbl>, V24 <dbl>, V25 <dbl>, V26 <dbl>, V27 <dbl>, V28 <dbl>,
## #   V29 <dbl>, V30 <dbl>, V31 <dbl>, V32 <dbl>, V33 <dbl>, V34 <dbl>,
## #   V35 <dbl>, V36 <dbl>, V37 <dbl>, V38 <dbl>, V39 <dbl>, V40 <dbl>,
## #   V41 <dbl>, V42 <dbl>, V43 <dbl>, V44 <dbl>, V45 <dbl>, V46 <dbl>,
## #   V47 <dbl>, V49 <dbl>, V50 <dbl>, V51 <dbl>, V52 <dbl>, V53 <dbl>,
## #   V54 <dbl>, V55 <dbl>, V56 <dbl>, V57 <dbl>, V58 <dbl>, V59 <dbl>,
## #   V60 <dbl>, Class <fct>
```
…
