tidyr-dplyr.utf8
…
---

<img src="C://Users/Roxana/curso-r-analisis-datos/img/tidyr-logo.png" width="10%" align="right" />

# pivot_longer()

```r
pivot_longer(relig_income, -religion, names_to = "income", values_to = "count")
```

```
## # A tibble: 180 x 3
##    religion income             count
##    <chr>    <chr>              <dbl>
##  1 Agnostic <$10k                 27
##  2 Agnostic $10-20k               34
##  3 Agnostic $20-30k               60
##  4 Agnostic $30-40k               81
##  5 Agnostic $40-50k               76
##  6 Agnostic $50-75k              137
##  7 Agnostic $75-100k             122
##  8 Agnostic $100-150k            109
##  9 Agnostic >150k                 84
## 10 Agnostic Don't know/refused    96
## # ... with 170 more rows
```
…
### Multiples variables están en una sola columna
#### (esas variables pasarán a ser las nuevas variables)

--

# pivot_wider()
--

```r
fish_encounters
```

```
## # A tibble: 114 x 3
##    fish  station  seen
##    <fct> <fct>   <int>
##  1 4842  Release     1
##  2 4842  I80_1       1
##  3 4842  Lisbon      1
##  4 4842  Rstr        1
##  5 4842  Base_TD     1
##  6 4842  BCE         1
##  7 4842  BCW         1
##  8 4842  BCE2        1
##  9 4842  BCW2        1
## 10 4842  MAE         1
## # ... with 104 more rows
```
…
.footnote[[*] 
Más información en https://dplyr.tidyverse.org/reference/summarise.html] 
---

<img src="C://Users/Roxana/curso-r-analisis-datos/img/hex-dplyr.png" width="10%" align="right" />

# arrange()

```r
gapminder %>%
  arrange(year, country)
```

```
## # A tibble: 1,704 x 6
##    country     continent  year lifeExp      pop gdpPercap
##    <fct>       <fct>     <int>   <dbl>    <int>     <dbl>
##  1 Afghanistan Asia       1952    28.8  8425333      779.
##  2 Albania     Europe     1952    55.2  1282697     1601.
##  3 Algeria     Africa     1952    43.1  9279525     2449.
##  4 Angola      Africa     1952    30.0  4232095     3521.
##  5 Argentina   Americas   1952    62.5 17876956     5911.
##  6 Australia   Oceania    1952    69.1  8691212    10040.
##  7 Austria     Europe     1952    66.8  6927772     6137.
##  8 Bahrain     Asia       1952    50.9   120447     9867.
##  9 Bangladesh  Asia       1952    37.5 46886859      684.
## 10 Belgium     Europe     1952    68    8730405     8343.
## # ... with 1,694 more rows
```
…
